material Plane
{
    technique
    {
        pass
        {
            ambient 1.0 0.0 0.0 1.0
            diffuse 0.486 .988 0.0 1.0

            lighting on
            shading gouraud
						
        }
		
    }
}