
material Torus
{
    technique
    {
        pass
        {
            ambient 1.0 0.0 0.0 1.0
            diffuse 1.0 0.0 0.0 1.0

            lighting on
            shading gouraud
        }
    }
}